<?xml version="1.0" encoding="UTF-8" standalone="no"?>
<svg width="23px" height="23px" viewBox="0 0 23 23" version="1.1" xmlns="http://www.w3.org/2000/svg" xmlns:xlink="http://www.w3.org/1999/xlink">
    <!-- Generator: Sketch 41.2 (35397) - http://www.bohemiancoding.com/sketch -->
    <title>addProject</title>
    <desc>Created with Sketch.</desc>
    <defs></defs>
    <g id="Page-3" stroke="none" stroke-width="1" fill="none" fill-rule="evenodd">
        <g id="12---task-assign" transform="translate(-813.000000, -23.000000)">
            <g id="Group" transform="translate(243.000000, 16.000000)">
                <g id="Group-14" transform="translate(570.000000, 7.000000)">
                    <g id="web_-_browser_tab_add">
                        <g id="Group-12">
                            <g id="addProject">
                                <path d="M21.4666667,0 L6.27708333,0 C5.4625,0 4.74375,0.670833333 4.74375,1.53333333 L4.74375,2.875 L5.70208333,2.875 L5.70208333,1.725 C5.70208333,1.29375 6.0375,0.958333333 6.46875,0.958333333 L21.2270833,0.958333333 C21.6583333,0.958333333 21.99375,1.29375 21.99375,1.725 L21.99375,16.4833333 C21.99375,16.9145833 21.6583333,17.25 21.2270833,17.25 L20.125,17.25 L20.125,18.2083333 L21.4666667,18.2083333 C22.28125,18.2083333 23,17.5375 23,16.675 L23,1.48541667 C23,0.670833333 22.3291667,0 21.4666667,0 Z M16.7229167,4.79166667 L1.48541667,4.79166667 C0.670833333,4.79166667 0,5.4625 0,6.27708333 L0,21.5145833 C0,22.3291667 0.670833333,23 1.48541667,23 L16.7229167,23 C17.5375,23 18.2083333,22.3291667 18.2083333,21.5145833 L18.2083333,6.27708333 C18.2083333,5.4625 17.5375,4.79166667 16.7229167,4.79166667 Z M17.25,21.275 C17.25,21.70625 16.9145833,21.99375 16.53125,21.99375 L1.725,21.99375 C1.29375,21.99375 1.00625,21.6583333 1.00625,21.275 L1.00625,6.46875 C1.00625,6.0375 1.34166667,5.75 1.725,5.75 L16.53125,5.75 C16.9625,5.75 17.25,6.08541667 17.25,6.46875 L17.25,21.275 Z" id="Shape" fill="#B9B9B9"></path>
                                <text id="+" font-family="OpenSans-Bold, Open Sans" font-size="9.5" font-weight="bold" letter-spacing="0.360000014" fill="#7ED321">
                                    <tspan x="6" y="17">+</tspan>
                                </text>
                            </g>
                        </g>
                    </g>
                </g>
            </g>
        </g>
    </g>
</svg>