<?xml version="1.0" encoding="UTF-8" standalone="no"?>
<svg width="22px" height="24px" viewBox="0 0 22 24" version="1.1" xmlns="http://www.w3.org/2000/svg" xmlns:xlink="http://www.w3.org/1999/xlink">
    <!-- Generator: Sketch 41.2 (35397) - http://www.bohemiancoding.com/sketch -->
    <title>logout</title>
    <desc>Created with Sketch.</desc>
    <defs></defs>
    <g id="Symbols" stroke="none" stroke-width="1" fill="none" fill-rule="evenodd">
        <g id="left-pane" transform="translate(-62.000000, -561.000000)" fill="#D8FFFE">
            <g id="Group-19">
                <g id="Group-3" transform="translate(51.000000, 561.000000)">
                    <g id="logout" transform="translate(11.000000, 0.000000)">
                        <path d="M15.3043478,2.784 L15.3043478,3.84 C18.7,5.472 21.0434783,8.928 21.0434783,12.96 C21.0434783,18.528 16.5478261,23.04 11,23.04 C5.45217391,23.04 0.956521739,18.528 0.956521739,12.96 C0.956521739,8.928 3.3,5.472 6.69565217,3.84 L6.69565217,2.784 C2.77391304,4.464 0,8.4 0,12.96 C0,19.056 4.92608696,24 11,24 C17.073913,24 22,19.056 22,12.96 C22,8.4 19.226087,4.464 15.3043478,2.784 Z M11,10.56 C11.2869565,10.56 11.4782609,10.368 11.4782609,10.08 L11.4782609,0.48 C11.4782609,0.192 11.2869565,0 11,0 C10.7130435,0 10.5217391,0.192 10.5217391,0.48 L10.5217391,10.08 C10.5217391,10.368 10.7130435,10.56 11,10.56 Z" id="Shape"></path>
                    </g>
                </g>
            </g>
        </g>
    </g>
</svg>